
{
    "name":"fdsfasd",
    "style":"Style 1",
    "layout":"Layout 1",
    "components":[
        {
            "type":"video",
            "title":"dsafsd",
            "filepath":"\\\\files\\UndergradHome\\ycastro\\Desktop\\SampleVideo_1080x720_1mb.mp4",
            "caption":" sdfsda",
            "width":"100",
            "height":"100"
        }
    ]
}