
{
    "name":"gdfsgf",
    "style":"Style 1",
    "layout":"Layout 1",
    "components":[
        {
            "type":"banner",
            "title":"Banner Title",
            "includeimage":true,
            "imagepath":"\\\\files\\UndergradHome\\ycastro\\My Documents\\NetBeansProjects\\eportfolio-gen-1\\images\\slide_show_images\\CarhengeNebraska.jpg",
            "height":"500",
            "width":"500"
        }
    ]
}