
{
    "name":"hgfdhfg",
    "components":[
        {
            "type":"text component",
            "title":"",
            "font":"Font 1",
            "fsize":"12",
            "content":"fgsdgfsd"
        },
        {
            "type":"video",
            "title":"fgdgs",
            "filepath":"\\\\files\\UndergradHome\\ycastro\\Desktop\\SampleVideo_1080x720_1mb.mp4",
            "caption":" fdsdgf",
            "width":"100",
            "height":"100"
        },
        {
            "type":"image",
            "title":"bvcxv",
            "caption":" jgkkj",
            "height":"100",
            "width":"100",
            "filepath":"\\\\files\\UndergradHome\\ycastro\\My Documents\\NetBeansProjects\\eportfolio-gen-1\\images\\slide_show_images\\SignalHillNewfoundland.jpg"
        },
        {
            "type":"slide show",
            "title":" hfgdhfg",
            "height":244.0,
            "width":744.0,
            "slides":[
                {
                    "filepath":"file:\\\\files\\UndergradHome\\ycastro\\My Documents\\NetBeansProjects\\eportfolio-gen-1\\images\\slide_show_images\\QuirponIslandNewfoundland.jpg",
                    "caption":" cfgfhdfg"
                },
                {
                    "filepath":"file:\\\\files\\UndergradHome\\ycastro\\My Documents\\NetBeansProjects\\eportfolio-gen-1\\images\\slide_show_images\\ToadstoolNebraska.jpg",
                    "caption":" hfgdh"
                }
            ]
        },
        {
            "type":"header",
            "title":"hdhdf"
        },
        {
            "type":"Footer",
            "title":"hfghfgh"
        },
        {
            "type":"banner",
            "title":"Banner Title",
            "includeimage":true,
            "imagepath":"\\\\files\\UndergradHome\\ycastro\\My Documents\\NetBeansProjects\\eportfolio-gen-1\\images\\slide_show_images\\SignalHillNewfoundland.jpg",
            "height":"500",
            "width":"500"
        },
        {
            "type":"list",
            "title":"fgdsgfd",
            "items":[
                {
                    "list item":"1"
                },
                {
                    "list item":"2"
                }
            ]
        }
    ]
}