
{
    "name":"the",
    "style":"Style 1",
    "layout":"Layout 1",
    "components":[
        {
            "type":"text component",
            "title":"",
            "font":"Font 1",
            "fsize":"12",
            "content":"the ttge"
        },
        {
            "type":"image",
            "title":"the",
            "caption":" the im",
            "height":"255",
            "width":"233",
            "filepath":"\\\\files\\UndergradHome\\ycastro\\My Documents\\NetBeansProjects\\eportfolio-gen-1\\images\\slide_show_images\\OregonTrailNebraska.jpg"
        }
    ]
}